…
なお、重複を含まないようにする。また、欠測値が1つあったが、conditionの網羅性の評価であり、欠測は扱わない為、欠測値は取り除いた。

``` r
df <- df %>% 
  distinct(品名) %>% 
  drop_na(品名)
df
```

    ## # A tibble: 33,806 × 1
    ##    品名                            
    ##    <chr>                           
    ##  1 ブロムワレリル尿素              
    ##  2 局　ブロムワレリル尿素          
    ##  3 ブロモバレリル尿素              
    ##  4 局　ブロムワレリル尿素「エビス」
    ##  5 ブロムワレリル尿素「三恵」      
    ##  6 局　ブロムワレリル尿素「三恵」  
    ##  7 「純生」ブロムワレリル尿素      
    ##  8 局　「純生」ブロムワレリル尿素  
    ##  9 ブロムワレリル尿素「メタル」    
    ## 10 局　ブロムワレリル尿素「メタル」
    ## # ℹ 33,796 more rows
…
